{
	"Entities": [
		{
			"Attack": 3,
			"Defense": 50,
			"SpriteName": "gargoyle",
			"Name": "Gargoyle"
		},
		{
			"Attack": 4,
			"Defense": 30,
			"SpriteName": "vampire-dracula",
			"Name": "Lesser One"
		},
		{
			"Attack": 12,
			"Defense": 70,
			"SpriteName": "vampire-dracula",
			"Name": "Dracula"
		},
		{
			"Attack": 4,
			"Defense": 30,
			"SpriteName": "vampire-dracula",
			"Name": "Lesser One"
		},
		{
			"Attack": 3,
			"Defense": 50,
			"SpriteName": "gargoyle",
			"Name": "Gargoyle"
		}
	]
	
}